{
    "id": 22,
    "course": {
        "id": 1,
        "name": "Crecimiento en armonía",
        "locale": "Castellano",
        "region": "Andalucía",
        "academicYear": "1º ciclo Inf"
    },
    "currentStep": 9,
    "basicWisdoms": [
        {
            "id": 2
        },
        {
            "id": 3
        },
        {
            "id": 4
        },
        {
            "id": 5
        },
        {
            "id": 6
        },
        {
            "id": 7
        },
        {
            "id": 8
        },
        {
            "id": 9
        },
        {
            "id": 10
        },
        {
            "id": 11
        },
        {
            "id": 12
        },
        {
            "id": 13
        },
        {
            "id": 14
        },
        {
            "id": 16
        },
        {
            "id": 17
        },
        {
            "id": 18
        },
        {
            "id": 19
        },
        {
            "id": 20
        },
        {
            "id": 22
        },
        {
            "id": 23
        },
        {
            "id": 24
        },
        {
            "id": 25
        },
        {
            "id": 26
        },
        {
            "id": 28
        },
        {
            "id": 29
        },
        {
            "id": 30
        },
        {
            "id": 31
        },
        {
            "id": 32
        },
        {
            "id": 33
        },
        {
            "id": 34
        },
        {
            "id": 35
        },
        {
            "id": 36
        },
        {
            "id": 37
        }
    ],
    "learningUnits": [
        {
            "name": "Situación 1",
            "order": 1,
            "uDBWs": [],
            "partialBWs": [
                {
                    "keep": true,
                    "bWIndex": 5
                },
                {
                    "keep": true,
                    "bWIndex": 10
                }
            ],
            "filterUDBWs": [],
            "partialEBWs": [
                {
                    "keep": true,
                    "eLIndex": 0,
                    "eBWIndex": 0
                },
                {
                    "keep": true,
                    "eLIndex": 1,
                    "eBWIndex": 0
                },
                {
                    "keep": true,
                    "eLIndex": 1,
                    "eBWIndex": 1
                }
            ],
            "partialEvCrs": [
                {
                    "sSIndex": 1,
                    "evCrIndex": 1
                },
                {
                    "sSIndex": 1,
                    "evCrIndex": 2
                }
            ],
            "partialEEvCrs": [
                {
                    "eLIndex": 0,
                    "eEvCrIndex": 0
                },
                {
                    "eLIndex": 1,
                    "eEvCrIndex": 0
                }
            ],
            "partialUDEBWs": [],
            "evCrToBWMatrix": [
                [
                    false,
                    false,
                    false,
                    false,
                    false,
                    true,
                    false,
                    false,
                    false,
                    false,
                    false,
                    false,
                    false,
                    false,
                    false,
                    false,
                    false,
                    false,
                    false,
                    false,
                    false,
                    false,
                    false,
                    false,
                    false,
                    false,
                    false,
                    false,
                    false,
                    false,
                    false,
                    false,
                    false
                ],
                [
                    false,
                    false,
                    false,
                    false,
                    false,
                    false,
                    false,
                    false,
                    false,
                    false,
                    true,
                    false,
                    false,
                    false,
                    false,
                    false,
                    false,
                    false,
                    false,
                    false,
                    false,
                    false,
                    false,
                    false,
                    false,
                    false,
                    false,
                    false,
                    false,
                    false,
                    false,
                    false,
                    false
                ]
            ],
            "eEvCrToEBWMatrix": [
                [
                    true,
                    false
                ],
                [
                    true,
                    true,
                    false,
                    false,
                    false,
                    false
                ]
            ],
            "eEvCrToUDEBWMatrix": [
                [],
                []
            ]
        },
        {
            "name": "Situación 2",
            "order": 2,
            "uDBWs": [],
            "partialBWs": [
                {
                    "keep": true,
                    "bWIndex": 8
                },
                {
                    "keep": true,
                    "bWIndex": 12
                },
                {
                    "keep": true,
                    "bWIndex": 2
                },
                {
                    "keep": true,
                    "bWIndex": 0
                },
                {
                    "keep": true,
                    "bWIndex": 5
                },
                {
                    "keep": true,
                    "bWIndex": 10
                }
            ],
            "filterUDBWs": [],
            "partialEBWs": [
                {
                    "keep": true,
                    "eLIndex": 1,
                    "eBWIndex": 0
                },
                {
                    "keep": true,
                    "eLIndex": 1,
                    "eBWIndex": 1
                }
            ],
            "partialEvCrs": [
                {
                    "sSIndex": 0,
                    "evCrIndex": 0
                },
                {
                    "sSIndex": 0,
                    "evCrIndex": 1
                },
                {
                    "sSIndex": 0,
                    "evCrIndex": 2
                },
                {
                    "sSIndex": 0,
                    "evCrIndex": 3
                },
                {
                    "sSIndex": 0,
                    "evCrIndex": 4
                },
                {
                    "sSIndex": 1,
                    "evCrIndex": 0
                }
            ],
            "partialEEvCrs": [
                {
                    "eLIndex": 1,
                    "eEvCrIndex": 0
                }
            ],
            "partialUDEBWs": [],
            "evCrToBWMatrix": [
                [
                    false,
                    false,
                    false,
                    false,
                    false,
                    false,
                    false,
                    false,
                    true,
                    false,
                    false,
                    false,
                    false,
                    false,
                    false,
                    false,
                    false,
                    false,
                    false,
                    false,
                    false,
                    false,
                    false,
                    false,
                    false,
                    false,
                    false,
                    false,
                    false,
                    false,
                    false,
                    false,
                    false
                ],
                [
                    false,
                    false,
                    false,
                    false,
                    false,
                    false,
                    false,
                    false,
                    false,
                    false,
                    false,
                    false,
                    true,
                    false,
                    false,
                    false,
                    false,
                    false,
                    false,
                    false,
                    false,
                    false,
                    false,
                    false,
                    false,
                    false,
                    false,
                    false,
                    false,
                    false,
                    false,
                    false,
                    false
                ],
                [
                    false,
                    false,
                    true,
                    false,
                    false,
                    false,
                    false,
                    false,
                    false,
                    false,
                    false,
                    false,
                    false,
                    false,
                    false,
                    false,
                    false,
                    false,
                    false,
                    false,
                    false,
                    false,
                    false,
                    false,
                    false,
                    false,
                    false,
                    false,
                    false,
                    false,
                    false,
                    false,
                    false
                ],
                [
                    true,
                    false,
                    false,
                    false,
                    false,
                    false,
                    false,
                    false,
                    false,
                    false,
                    false,
                    false,
                    false,
                    false,
                    false,
                    false,
                    false,
                    false,
                    false,
                    false,
                    false,
                    false,
                    false,
                    false,
                    false,
                    false,
                    false,
                    false,
                    false,
                    false,
                    false,
                    false,
                    false
                ],
                [
                    false,
                    false,
                    false,
                    false,
                    false,
                    true,
                    false,
                    false,
                    false,
                    false,
                    false,
                    false,
                    false,
                    false,
                    false,
                    false,
                    false,
                    false,
                    false,
                    false,
                    false,
                    false,
                    false,
                    false,
                    false,
                    false,
                    false,
                    false,
                    false,
                    false,
                    false,
                    false,
                    false
                ],
                [
                    false,
                    false,
                    false,
                    false,
                    false,
                    false,
                    false,
                    false,
                    false,
                    false,
                    true,
                    false,
                    false,
                    false,
                    false,
                    false,
                    false,
                    false,
                    false,
                    false,
                    false,
                    false,
                    false,
                    false,
                    false,
                    false,
                    false,
                    false,
                    false,
                    false,
                    false,
                    false,
                    false
                ]
            ],
            "eEvCrToEBWMatrix": [
                [
                    true,
                    true,
                    false,
                    false,
                    false,
                    false
                ]
            ],
            "eEvCrToUDEBWMatrix": [
                []
            ]
        },
        {
            "name": "Situación 3",
            "order": 3,
            "uDBWs": [],
            "partialBWs": [
                {
                    "keep": true,
                    "bWIndex": 0
                },
                {
                    "keep": true,
                    "bWIndex": 9
                },
                {
                    "keep": true,
                    "bWIndex": 7
                },
                {
                    "keep": true,
                    "bWIndex": 4
                },
                {
                    "keep": true,
                    "bWIndex": 1
                },
                {
                    "keep": true,
                    "bWIndex": 6
                }
            ],
            "filterUDBWs": [],
            "partialEBWs": [
                {
                    "keep": true,
                    "eLIndex": 2,
                    "eBWIndex": 0
                }
            ],
            "partialEvCrs": [
                {
                    "sSIndex": 2,
                    "evCrIndex": 0
                },
                {
                    "sSIndex": 2,
                    "evCrIndex": 1
                },
                {
                    "sSIndex": 2,
                    "evCrIndex": 2
                },
                {
                    "sSIndex": 3,
                    "evCrIndex": 0
                },
                {
                    "sSIndex": 3,
                    "evCrIndex": 1
                },
                {
                    "sSIndex": 3,
                    "evCrIndex": 2
                },
                {
                    "sSIndex": 3,
                    "evCrIndex": 3
                }
            ],
            "partialEEvCrs": [
                {
                    "eLIndex": 2,
                    "eEvCrIndex": 0
                }
            ],
            "partialUDEBWs": [],
            "evCrToBWMatrix": [
                [
                    true,
                    false,
                    false,
                    false,
                    false,
                    false,
                    false,
                    false,
                    false,
                    false,
                    false,
                    false,
                    false,
                    false,
                    false,
                    false,
                    false,
                    false,
                    false,
                    false,
                    false,
                    false,
                    false,
                    false,
                    false,
                    false,
                    false,
                    false,
                    false,
                    false,
                    false,
                    false,
                    false
                ],
                [
                    false,
                    false,
                    false,
                    false,
                    false,
                    false,
                    false,
                    false,
                    false,
                    true,
                    false,
                    false,
                    false,
                    false,
                    false,
                    false,
                    false,
                    false,
                    false,
                    false,
                    false,
                    false,
                    false,
                    false,
                    false,
                    false,
                    false,
                    false,
                    false,
                    false,
                    false,
                    false,
                    false
                ],
                [
                    false,
                    false,
                    false,
                    false,
                    false,
                    false,
                    false,
                    true,
                    false,
                    false,
                    false,
                    false,
                    false,
                    false,
                    false,
                    false,
                    false,
                    false,
                    false,
                    false,
                    false,
                    false,
                    false,
                    false,
                    false,
                    false,
                    false,
                    false,
                    false,
                    false,
                    false,
                    false,
                    false
                ],
                [
                    false,
                    false,
                    false,
                    false,
                    true,
                    false,
                    false,
                    false,
                    false,
                    false,
                    false,
                    false,
                    false,
                    false,
                    false,
                    false,
                    false,
                    false,
                    false,
                    false,
                    false,
                    false,
                    false,
                    false,
                    false,
                    false,
                    false,
                    false,
                    false,
                    false,
                    false,
                    false,
                    false
                ],
                [
                    false,
                    true,
                    false,
                    false,
                    false,
                    false,
                    false,
                    false,
                    false,
                    false,
                    false,
                    false,
                    false,
                    false,
                    false,
                    false,
                    false,
                    false,
                    false,
                    false,
                    false,
                    false,
                    false,
                    false,
                    false,
                    false,
                    false,
                    false,
                    false,
                    false,
                    false,
                    false,
                    false
                ],
                [
                    false,
                    false,
                    false,
                    false,
                    false,
                    false,
                    true,
                    false,
                    false,
                    false,
                    false,
                    false,
                    false,
                    false,
                    false,
                    false,
                    false,
                    false,
                    false,
                    false,
                    false,
                    false,
                    false,
                    false,
                    false,
                    false,
                    false,
                    false,
                    false,
                    false,
                    false,
                    false,
                    false
                ],
                [
                    false,
                    true,
                    false,
                    false,
                    false,
                    false,
                    false,
                    false,
                    false,
                    false,
                    false,
                    false,
                    false,
                    false,
                    false,
                    false,
                    false,
                    false,
                    false,
                    false,
                    false,
                    false,
                    false,
                    false,
                    false,
                    false,
                    false,
                    false,
                    false,
                    false,
                    false,
                    false,
                    false
                ]
            ],
            "eEvCrToEBWMatrix": [
                [
                    true
                ]
            ],
            "eEvCrToUDEBWMatrix": [
                []
            ]
        }
    ],
    "specificSkills": [
        {
            "id": 1,
            "evCrs": [
                {
                    "id": 1
                },
                {
                    "id": 2
                },
                {
                    "id": 3
                },
                {
                    "id": 4
                },
                {
                    "id": 5
                }
            ],
            "evCrToBWMatrix": [
                [
                    false,
                    false,
                    false,
                    false,
                    false,
                    false,
                    false,
                    false,
                    true,
                    false,
                    false,
                    false,
                    false,
                    false,
                    false,
                    false,
                    false,
                    false,
                    false,
                    false,
                    false,
                    false,
                    false,
                    false,
                    false,
                    false,
                    false,
                    false,
                    false,
                    false,
                    false,
                    false,
                    false
                ],
                [
                    false,
                    false,
                    false,
                    false,
                    false,
                    false,
                    false,
                    false,
                    false,
                    false,
                    false,
                    false,
                    true,
                    false,
                    false,
                    false,
                    false,
                    false,
                    false,
                    false,
                    false,
                    false,
                    false,
                    false,
                    false,
                    false,
                    false,
                    false,
                    false,
                    false,
                    false,
                    false,
                    false
                ],
                [
                    false,
                    false,
                    true,
                    false,
                    false,
                    false,
                    false,
                    false,
                    false,
                    false,
                    false,
                    false,
                    false,
                    false,
                    false,
                    false,
                    false,
                    false,
                    false,
                    false,
                    false,
                    false,
                    false,
                    false,
                    false,
                    false,
                    false,
                    false,
                    false,
                    false,
                    false,
                    false,
                    false
                ],
                [
                    true,
                    false,
                    false,
                    false,
                    false,
                    false,
                    false,
                    false,
                    false,
                    false,
                    false,
                    false,
                    false,
                    false,
                    false,
                    false,
                    false,
                    false,
                    false,
                    false,
                    false,
                    false,
                    false,
                    false,
                    false,
                    false,
                    false,
                    false,
                    false,
                    false,
                    false,
                    false,
                    false
                ],
                [
                    false,
                    false,
                    false,
                    false,
                    false,
                    true,
                    false,
                    false,
                    false,
                    false,
                    false,
                    false,
                    false,
                    false,
                    false,
                    false,
                    false,
                    false,
                    false,
                    false,
                    false,
                    false,
                    false,
                    false,
                    false,
                    false,
                    false,
                    false,
                    false,
                    false,
                    false,
                    false,
                    false
                ]
            ]
        },
        {
            "id": 2,
            "evCrs": [
                {
                    "id": 6
                },
                {
                    "id": 7
                },
                {
                    "id": 8
                }
            ],
            "evCrToBWMatrix": [
                [
                    false,
                    false,
                    false,
                    false,
                    false,
                    false,
                    false,
                    false,
                    false,
                    false,
                    true,
                    false,
                    false,
                    false,
                    false,
                    false,
                    false,
                    false,
                    false,
                    false,
                    false,
                    false,
                    false,
                    false,
                    false,
                    false,
                    false,
                    false,
                    false,
                    false,
                    false,
                    false,
                    false
                ],
                [
                    false,
                    false,
                    false,
                    false,
                    false,
                    true,
                    false,
                    false,
                    false,
                    false,
                    false,
                    false,
                    false,
                    false,
                    false,
                    false,
                    false,
                    false,
                    false,
                    false,
                    false,
                    false,
                    false,
                    false,
                    false,
                    false,
                    false,
                    false,
                    false,
                    false,
                    false,
                    false,
                    false
                ],
                [
                    false,
                    false,
                    false,
                    false,
                    false,
                    false,
                    false,
                    false,
                    false,
                    false,
                    true,
                    false,
                    false,
                    false,
                    false,
                    false,
                    false,
                    false,
                    false,
                    false,
                    false,
                    false,
                    false,
                    false,
                    false,
                    false,
                    false,
                    false,
                    false,
                    false,
                    false,
                    false,
                    false
                ]
            ]
        },
        {
            "id": 3,
            "evCrs": [
                {
                    "id": 9
                },
                {
                    "id": 10
                },
                {
                    "id": 11
                }
            ],
            "evCrToBWMatrix": [
                [
                    true,
                    false,
                    false,
                    false,
                    false,
                    false,
                    false,
                    false,
                    false,
                    false,
                    false,
                    false,
                    false,
                    false,
                    false,
                    false,
                    false,
                    false,
                    false,
                    false,
                    false,
                    false,
                    false,
                    false,
                    false,
                    false,
                    false,
                    false,
                    false,
                    false,
                    false,
                    false,
                    false
                ],
                [
                    false,
                    false,
                    false,
                    false,
                    false,
                    false,
                    false,
                    false,
                    false,
                    true,
                    false,
                    false,
                    false,
                    false,
                    false,
                    false,
                    false,
                    false,
                    false,
                    false,
                    false,
                    false,
                    false,
                    false,
                    false,
                    false,
                    false,
                    false,
                    false,
                    false,
                    false,
                    false,
                    false
                ],
                [
                    false,
                    false,
                    false,
                    false,
                    false,
                    false,
                    false,
                    true,
                    false,
                    false,
                    false,
                    false,
                    false,
                    false,
                    false,
                    false,
                    false,
                    false,
                    false,
                    false,
                    false,
                    false,
                    false,
                    false,
                    false,
                    false,
                    false,
                    false,
                    false,
                    false,
                    false,
                    false,
                    false
                ]
            ]
        },
        {
            "id": 4,
            "evCrs": [
                {
                    "id": 12
                },
                {
                    "id": 13
                },
                {
                    "id": 14
                },
                {
                    "id": 15
                }
            ],
            "evCrToBWMatrix": [
                [
                    false,
                    false,
                    false,
                    false,
                    true,
                    false,
                    false,
                    false,
                    false,
                    false,
                    false,
                    false,
                    false,
                    false,
                    false,
                    false,
                    false,
                    false,
                    false,
                    false,
                    false,
                    false,
                    false,
                    false,
                    false,
                    false,
                    false,
                    false,
                    false,
                    false,
                    false,
                    false,
                    false
                ],
                [
                    false,
                    true,
                    false,
                    false,
                    false,
                    false,
                    false,
                    false,
                    false,
                    false,
                    false,
                    false,
                    false,
                    false,
                    false,
                    false,
                    false,
                    false,
                    false,
                    false,
                    false,
                    false,
                    false,
                    false,
                    false,
                    false,
                    false,
                    false,
                    false,
                    false,
                    false,
                    false,
                    false
                ],
                [
                    false,
                    false,
                    false,
                    false,
                    false,
                    false,
                    true,
                    false,
                    false,
                    false,
                    false,
                    false,
                    false,
                    false,
                    false,
                    false,
                    false,
                    false,
                    false,
                    false,
                    false,
                    false,
                    false,
                    false,
                    false,
                    false,
                    false,
                    false,
                    false,
                    false,
                    false,
                    false,
                    false
                ],
                [
                    false,
                    true,
                    false,
                    false,
                    false,
                    false,
                    false,
                    false,
                    false,
                    false,
                    false,
                    false,
                    false,
                    false,
                    false,
                    false,
                    false,
                    false,
                    false,
                    false,
                    false,
                    false,
                    false,
                    false,
                    false,
                    false,
                    false,
                    false,
                    false,
                    false,
                    false,
                    false,
                    false
                ]
            ]
        }
    ],
    "ecosocialLearnings": [
        {
            "id": 1,
            "eBWs": [
                {
                    "id": 1
                },
                {
                    "id": 2
                }
            ],
            "group": "ECODEPENDENCIA",
            "eEvCrs": [
                {
                    "id": 1
                }
            ],
            "uDEBWs": [],
            "selectedEEvCrs": [
                true
            ],
            "eEvCrToEBWMatrix": [
                [
                    true,
                    false
                ]
            ],
            "eEvCrToUDEBWMatrix": [
                []
            ]
        },
        {
            "id": 2,
            "eBWs": [
                {
                    "id": 15
                },
                {
                    "id": 16
                },
                {
                    "id": 17
                },
                {
                    "id": 18
                },
                {
                    "id": 19
                },
                {
                    "id": 20
                }
            ],
            "group": "ECODEPENDENCIA",
            "eEvCrs": [
                {
                    "id": 8
                },
                {
                    "id": 9
                },
                {
                    "id": 10
                }
            ],
            "uDEBWs": [],
            "selectedEEvCrs": [
                true,
                false,
                false
            ],
            "eEvCrToEBWMatrix": [
                [
                    true,
                    true,
                    false,
                    false,
                    false,
                    false
                ],
                [
                    false,
                    false,
                    false,
                    false,
                    false,
                    false
                ],
                [
                    false,
                    false,
                    false,
                    false,
                    false,
                    false
                ]
            ],
            "eEvCrToUDEBWMatrix": [
                [],
                [],
                []
            ]
        },
        {
            "id": 3,
            "eBWs": [
                {
                    "id": 42
                }
            ],
            "group": "FUNCIONAMIENTO_DE_LA_BIOSFERA",
            "eEvCrs": [
                {
                    "id": 20
                }
            ],
            "uDEBWs": [],
            "selectedEEvCrs": [
                true
            ],
            "eEvCrToEBWMatrix": [
                [
                    true
                ]
            ],
            "eEvCrToUDEBWMatrix": [
                []
            ]
        }
    ]
}